{
  "lookup": {
    "eJyLrq6NBQAEOAGx": "action_listen",
    "eJyLrq7VUaguKEoti09MLsnMz7NSqIYw4vMSc1OtFKCcnMziktQ8oNrS4tQioJrMPCC3BCidlpZZlFtbGwsABUwb4w==": "utter_choose",
    "eJyLrq7VUaguKEoti09MLsnMz7NSqIYw4vMSc1OtFKCcnMziktQ8oNrS4tQioJrMPCC3BCidlpZZlFtLwJDSkpLUovjkjPz84lTcZsQCAOIwNb0=": "action_listen",
    "eJyLrq7VUaguKEoti09MLsnMz7NSqIYw4vMSc1OtFKCcnMziktQ8oNrS4tQioJrMPCC3BCidlpZZlFtLwJDSkpLUovjkjPz84lRyzSDgEIjh8cWlSVmpySW1tbEAecxTSg==": "action_generate_question",
    "eJydzsENgzAMBdBVMkAnYBWErBD9tKnAAdvpJWL3pqL3IG7+9teTx3o8XN0EH/LBUubB1XMg9isG9w9LUgO3blFI6yRu0do5xiTr0UGKGYTCK2fFXaPzyImTlvmNYBexJxjiDbQX6G/Td6cv9Wl1ag==": "action_listen",
    "eJyLrq7VUaguKEoti09MLsnMz7NSqIYw4vMSc1OtFKCcnMziktQ8oNrS4tQioJrMPCC3xEohvSg1taS2NhYA6dwbhQ==": "utter_greet",
    "eJyLrq7VUaguKEoti09MLsnMz7NSqIYw4vMSc1OtFKCcnMziktQ8oNrS4tQioJrMPCC3xEohvSg1taSWgBmlJSWpRfEQpbhMiAUAQvc0lw==": "action_listen",
    "eJyLrq7VUaguKEoti09MLsnMz7NSqIYw4vMSc1OtFKCcnMziktQ8oNrS4tQioJrMPCC3xEohvSg1taSWgBmlJSWpRfEQpeSZQMAVjnnppTmJRS6pZbW1sQA55lA9": "my_form_action",
    "eJyLrq7VUaguKEoti09MLsnMz7NSqIYw4vMSc1OtFKCcnMziktQ8oNrS4tQioJrMPCC3xEohvSg1taSWgBmlJSWpRfEQpeSZQMAVjnnppTmJRS6pZYQMyq2MT8svyoXK4jcpFgCBsWxN": "utter_accountant",
    "eJylj0EKgCAQRa/iATqBu6BbRMggUwg5xjgGId09wRYtAqF285nH4/8xn53KG+NuwIoLpFWuhyHwqNUdVhcFqbApIhfGUYmi1cKIcjYcSQTZVPSbodGipyWtwAPuLZE/zBzY398/pjoKrA2JBOhl2dM1Xf8LiUo=": "action_listen",
    "eJyLrq7VUaguKEoti09MLsnMz7NSqIYw4vMSc1OtFKCcnMziktQ8oNrS4tQioJrMPCC3xEqhKDUdJFMUn5JakpiZU1xbGwsAMy4gGA==": "utter_register",
    "eJyLrq7VUaguKEoti09MLsnMz7NSqIYw4vMSc1OtFKCcnMziktQ8oNrS4tQioJrMPCC3xEqhKDUdJFMUn5JakpiZU1xLwLjSEpBimC5izIsFAAsGPws=": "action_listen",
    "eJyLrq7VUaguKEoti09MLsnMz7NSqIYw4vMSc1OtFKCcnMziktQ8oNrS4tQioJrMPCC3xEqhKDUdJFNUWxsLAD8QHNM=": "action_listen",
    "eJyLrq7VUaguKEoti09MLsnMz7NSqIYw4vMSc1OtFKCcnMziktQ8oNrS4tQioJrMPCC3xEqhKDUdJFNUS5kxiWlpmUW5tbWxAJC3NwU=": "utter_choose",
    "eJyLrq7VUaguKEoti09MLsnMz7NSqIYw4vMSc1OtFKCcnMziktQ8oNrS4tQioJrMPCC3xEqhKDUdJFNUS5kxiWlpmUW5hAwpLQHaFJ+ckZ9fnIrbjFgAoxtQ3w==": "action_listen",
    "eJyljkEKAjEMRa/SA4jotlcZhlJjZozMtJqkIpTe3ejMSheC7vLJ4/3f1bZx9cJ4CxGUcvKuLkdIcUbv1jCRKCZjiyAbQ8miesc4Pj/c/tPEYSCev0mKWlOAU86Cvzreh8iUVQyCwmyacC0oL4LSEe/edfvtrjcMMuOaPquXSUHK4YygrfUPlAeBOg==": "action_generate_question",
    "eJy1jkEKwjAQRa+SA4joNlcpJcT4WyNtojMTEUrv3tEWF7pQFHfzmcf7vxrGlRlOhIvzQWJO1gzz4ZLvYc0SusiCpGxhkDIxaRRrCO3tQ+NvGt80kfp3kiLa5MIhZ8a3juch3GVhhUIhUo07F/CdiGmPqzXVdr2pFQuZsKTX6nmS47I7IsiHE1okkBc8Kv+1pp4ANZq2KA==": "action_listen",
    "eJzFkEEKwjAQRa+SA4joNleREmL8bSPtpM4kRSi5u9EWF7pQVHCXTx7/P2Y35ZWaBsZorIs+kFbT/DBke2i1hM5LBBU2CbgwnkqMWjGa6w/n72psXXvuX5WkWJaMa0MQfNrxKCJdiFIgl5hLjTklyI3wdMBZq912vakK5gJjSc/Ts5KRtD/CxTcVGhDYRtwn/2rz24M0foQZ2kDIuboAZnPk1w==": "action_listen",
    "eJzFktEKwjAMRX+lHyCir/2VMUqt2VbZ0pm0Uxj9d6Mbe9AHRYW95ZLDvZeQYswbNfYEg7Eu+oBajdNg0Hag1SxazxFQ2MRAwngUGbUiqO8byr/Z2Kry1L0zSVGSjGtCYPjW47kItyGyQC4RiY05J+AH4fEIV62K/XZXCuYCwaxeo6dKhtPhBC5+WKEGBLIRlshV2/z3ILUfwPRNQFgl3iJf5FOWw+byBir9Fdg=": "action_handle_answer",
    "eJzFkk0OgjAQha/SAxij217FkKaWAWpgijMtmhDu7iiEhS4k/oTdvMzre18mPfTDRvUtQWesiz6gVv04GLQNaDWJ2nMEFG9iIPF4FBm1IijvGxq+i7FF4al5F5KiNBlXhcDwacYzCNchsphcIpIYc07AD4fHHK5aHfbbXSY2Fwgm9Vo9IhlOxxO4uBChBASyEebKVWl+e5DSd2DaKiCsUm+RL/JT5sMuY6gs5jWY8fHfULIbPU1Jlg==": "action_listen",
    "eJyLrq7VUaguKEoti09MLsnMz7NSqIYw4vMSc1OtFKCcnMziktQ8oNrS4tQioJrMPCC3BCidV1yeWhRfWJpaDFJXWxsLABSHH9U=": "action_handle_answer",
    "eJyLrq7VUaguKEoti09MLsnMz7NSqIYw4vMSc1OtFKCcnMziktQ8oNrS4tQioJrMPCC3BCidV1yeWhRfWJpaDFJXS5xpGYl5KTmp8RDNRBgaCwASv0DF": "action_listen",
    "eJyLrq7VUaguKEoti09MLsnMz7NSqIYw4vMSc1OtFKCcnMziktQ8oNrS4tQioJrMPCC3xEohvSg1taSWgBmlJSWpRfEQpeSZQMAVRYl5Kfm58RBubW0sADA+UcY=": "my_form_action",
    "eJydjtEJgDAMBVfJAE7QVURC0SgFk0qaClK6u4X6X/AvxzuOzKVOUC6lG/1qIYqD0g8Uz+TggzMkI2luTqTNCdLQHBxKZHXQyGak2NV/hcEX6mWLjB1HLX5wj8rfOowtLzjVb18=": "action_listen",
    "eJyLrq7VUaguKEoti09MLsnMz7NSqIYw4vMSc1OtFKCcnMziktQ8oNrS4tQioJrMPCC3BChdnB2fmJJSlFpcXFsbCwCWKx3y": "utter_address",
    "eJyLrq7VUaguKEoti09MLsnMz7NSqIYw4vMSc1OtFKCcnMziktQ8oNrS4tQioJrMPCC3BChdnB2fmJJSlFpcXEvApNKSktQiuGL8JsUCAFYPOkA=": "action_listen",
    "eJyljkEKwCAMBL/iA/oCv1KKiOYgtVGS2Iv494a29Oqht112GHbtYzG9EpzOB0kFrelPcOgPsOYtObEAKtsYSJmEWkVn3p2PkYB5TExNBOiD/5hmn2rNKfibqVQCxKbWMbYLFhBbLA==": "utter_application_procedures",
    "eJyLrq7VUaguKEoti09MLsnMz7NSqIYw4vMSc1OtFKCcnMziktQ8oNrS4tQioJrMPCC3BChdnB2fmJJSlFpcXEvApNKSktQiuGJKTCLkpoKCnMzkRLCagqL85NSUUqCpRDoPu16i7YgFAFM7gm4=": "action_listen",
    "eJytkNEJwzAMRFfxAJ0gq4RgHFtQ00QWktwf490rmpCvQALtnw49nY4bW3+4RgxvH6LmgoNr2+AxrDC4XSxZFNDYKsDGZDSptpaXDykxiPQLp6oKfMC/OF1lIlpyDF+GuERI1Vxvxju//dOPG2XSsyB4rOsM3Pv0AT4ioMs=": "utter_phone_number",
    "eJytkNEJwzAMRFfxAJkgq5RiXFtQ00QWkpwfk90rmlAoFGJI/nTo3enQra2Da8Sw+BA1Fxxd2waPYYbR7WLKooDGVgE2JqNJtbW8fEiJQWQ9SKqqwF/4TNJRJ6Ipx/BhiEuEVC21s95/70U3Op5Jz4Lgsc4P4L7KP46OzPsbVRTBUQ==": "action_listen",
    "eJytkGEKwyAMha/iAXaCXmUMSTVQaRslxsEQ776wjcFgoND+yyPfe3nkWtvF1MR4t+AkRJpMfQ+WYMfJfMQWsiApWzKyMoFUiq7zasF7xpxbJ6mIIH/hI0m9TiltwcGLSRwd+qKpg/X+e0+6MfDMtERCS2Wfkccq/zgOZ3YqygK0PmJp7fYEuLHcgQ==": "utter_thankyou",
    "eJytkFEKwyAMQK/iAXaCXqUMcRqotI2SxMGQ3n1hG4XBqEL3Z/Dl+XCs28XUTHC3zktMOJj6Plh0KwzmMyyRBVDZwkDKRNRR9Jpn60IgYN4apiICtMNnTK2mnJfo3YvJlDyEotbOvN+7f3qj4zPzlBAslvUG1Jf8tXHa2UiUyeH8SKUvbacPPNcnp2f4Sw==": "action_listen",
    "eJytkFEKwyAMQK/iAXaCXmUMsRpWaZtIjIMi3n2yjsJgoKz7M/jyfHjN5aJyYHhoY8UTDirvB41mhUG9h8VHAaxsisCV8VhHqddx1sY5hhhLw5REgA/4jKnVFMLirXkxgcmCS9Xamfd9909vdHxmmAhBY1pH4L7kj43TzkaiTAbnjVJf2kH/7Gnk3IncuEEptyc3QRMA": "utter_goodbye",
    "eJytkFEKwyAMQK/iAXaCXmUMsRpWaZtIjIMivftk3QqDDWXdn8GX58NzXk8qB4abNlY8YafydtBoZujUc5h8FMDCpghcGI9llHIdR22cY4hxrZiSCPAOHzHVmkKYvDUPJjBZcKlYG/M+7/7pjYbPDAMhaExzD9yW/LZx2FlJlMHguFBqS9vpnz2VnCuR6xdoq3nB3y2XOxQILbY=": "action_listen",
    "eJyLrq7VUaguKEoti09MLsnMz7NSqIYw4vMSc1OtFKCcnMziktQ8oNrS4tQioJrMPCC3xEohvSg1taSWgBmlJSWpRfEQpeSZQMAVZYnJiXnJlfHJGanJ2bW1sQAu5lGW": "utter_vacancy_check",
    "eJyLrq7VUaguKEoti09MLsnMz7NSqIYw4vMSc1OtFKCcnMziktQ8oNrS4tQioJrMPCC3xEohvSg1taSWgBmlJSWpRfEQpeSZQMAVZYnJiXnJlfHJGanJ2cS5BlULIRNjAVz8cP4=": "utter_vacancy_jobs",
    "eJyLrq7VUaguKEoti09MLsnMz7NSqIYw4vMSc1OtFKCcnMziktQ8oNrS4tQioJrMPCC3xEohvSg1taSWgBmlJSWpRfEQpeSZQMAVZYnJiXnJlfHJGanJ2cS5BlULNU3Myk8qJmhgLAAND5AW": "utter_question",
    "eJyLrq7VUaguKEoti09MLsnMz7NSqIYw4vMSc1OtFKCcnMziktQ8oNrS4tQioJrMPCC3xEohvSg1taSWgBmlJSWpRfEQpeSZQMAVZYnJiXnJlfHJGanJ2cS5BlULNU3Myk8qpoqBhaWpxSBBgobFAgDcK620": "utter_get_jobs",
    "eJyLrq7VUaguKEoti09MLsnMz7NSqIYw4vMSc1OtFKCcnMziktQ8oNrS4tQioJrMPCC3xEohvSg1taSWgBmlJSWpRfEQpeSZQMAVZYnJiXnJlfHJGanJ2cS5BlULNU3Myk8qpoqBhaWpxSBBqhiWnlpCnMtiAY24yyc=": "action_listen",
    "eJyLrq7VUaguKEoti09MLsnMz7NSqIYw4vMSc1OtFKCcnMziktQ8oNrS4tQioJrMPCC3xEohvSg1taSWgBmlJSWpRfEQpeSZQMAVZYnJiXnJlfHJGanJ2cS5BlULNU3Myk8qpoqBhaWpxSBBqhiWnlpCDZeRFhGxAC8K6CY=": "my_form_action",
    "eJytkVEKAjEMRK/SA3iCXkUk1BDXqk01TReWsne3svvjV0Xyl0kmj4E5tvXg2lNohoAaM3vXtgE4JPJuF49YlLh7ayHpnshdqneTEOk6YFRVEtis/xEGKeaAgXEBvBLef0vz/WJJvOVzMQG+KpXP0gQ2kVoksywiLXDJkvbrEHZ6A3PMBZ4=": "action_listen",
    "eJyljjEKwzAMRa+iA4TSrr6KMcakIggcJ1hKFuO7V64TAl0ydJN4T//LljpAWTPuPoxCSzJQ+uBTmNHAsURiwaTuxpjVoaSrGMg4NZL9GyVQ5HoTt0mTz6v/837f47gIq9SpfT2e7irRBhJC5bZxN8BZO9GO38Ra3QesSGfs": "name_form",
    "eJytjkEKwzAMBL+iB4TSXv0VY4xp1SBw7CIpuZj8vXLTUOglh/YitOxqR76tA7QH4xLTVakWB21bYkkTOniLTKJYLDsLsmWomFQHjGN3ON5QE2VZD+pm7eH96ve+7/ckVxULba6/nM7hAzECKaH5vvthgB070oKvxiNen/FeefoLKzwB2uqPFQ==": "utter_get_address",
    "eJy9kEEKAyEMRa/iAYbSbr2KiEhNJeBoMZnZyNy9sXYodDOLlm5Cwv/5L8S0bVLtXmF1/spYslZtNC77GbR6DQmJIYt3IajiwSwja1UhdqW6AOwx0XYQt3A371vf532eR6kwiWmo5nI62zdECMgIopuu20nt2IgrPBOPeL26W6nzH1jjVxHY+RAqEP2EaR95rLmi": "action_listen",
    "eJy9kEEKwyAQRa/iAaS0W68iQaSZykCixZlkE7x7NRoKgeKikI04/O9/39FbkmJ7R1iNfTIGr8RWL8bbGZRow4TE4LN3IYjZgz6PrEQEV5RoRmCLE6VO3MLFfLz6P+9cj6bAlE1V1Y/bffhCMgEZIeu66IMUB9bhCntij1dO8wpxvoBVd+WAjR3HCEQXMH/tszVoSCl6/OY/Vzg+koYPXefp4A==": "address_form",
    "eJy9kEEKwyAQRa/iAaS0W68iQaSZhgGjxZlkE3L3ajUUhOKiJRtx+N9536+3XYrtGWE19s4YvBJbuRhvZ1CiDg6JwSfvQhCTB30aWYkIU1aiGYEtOto76xbO5uPV7/vaeOQCUzIVVd8u1+EDSQRkhKTrrA9SHNgJV3hv7PHyaR4hziewSlcTsLHjGIHoBOa3PmuCipSix6/+NsLxkV6KYmuL/neI4QVgXxm6": "utter_get_number",
    "eJy9kkEKwyAQRa/iAaS021wlBLHNNAyoKc4km5C7V6MhEAguSt2I8r/zvh/bZZVi+XiYlX4xjq4RS9oopy00Ih8MEoML3onABw+6cORGeBii4lUPrNHQWhg3cTTvt36fd45HZmQKpqS2j9u9OyCBgIwQ9DbqnRQ7dsAZtoklXlzVe/S2Ait1NQAr3fceiCowr/rMCTJSihI/+88R9oeUUiTbuei6IY763WSf22f9V5DuC4YnS0c=": "action_listen",
    "eJzFkt0KgzAMhV+lDyBju/VVREo3MxfQVtrojezdl/6IUNjKGLgbacgx3+lpmvVZiXWysEh1IzS6Fms8SK1GqEUqBnQEmrWzA8sa1FxSLSz0vmNlB6RwcM/CuJm8ePvr93m5PTcYciyK3eZyOrc7hAlICNxvfL+txIbtcYEwscTzX3k3djyAFbPqgaTqOgvOHcB8l2dykJCVKPGTPrewXaTkIsryoI81scev5/EalvVPaXz/JlwEzx9XJChyT9PDaN6S9gVKNH7S": "number_form",
    "eJzFU9sKgzAM/ZV+gIzt1V8RKd3MtKCttNEX8d+XXkQobEUE91IacpJzepJWy1qwZTQwc/FCqVXJlnDhSgxQshj00iIowk4WDGGkohBLZqB1GcMbQCF7u2baTejAW9X5fqk822u0BArZ6nG71zsJMUiUQPnK5euCbbStnMF3zPG5k7+1GS7gCl61gFw0jQFrL+D85mdUECkLluOP+FTC9pCcigBLjb5WxG6/moanX9Y/uXF8JhR4zT9XxCNSTWOnVf4X+NID4zmtp/4AA8qxjQ==": "utter_great",
    "eJzFk00KgzAQha+SA0hpt15FJKR1agOaSDK6kd69kx8RAm2Q0nQjDvMy7/NNbNZnxdbJwMLFDaVWNVvDC1dihJrFYpAWQZF2tmBIIxWVWDMDvesY3gEKOdhnZtyMTryd+n5eimcHjZZEodtcTud2NyEHiRKo37h+W7HNtpcL+Ik5P/fkd23GAl4hqx6Qi64zYG0Bz3d5RoJoWbGcf9SnCNuH5CiCLA26LMQev5rHq7+sf0rj+E6o8Mwfr4hXpEzTQ6v8X+CPHljPj3niqgwILMTTvgBM5uRS": "action_listen",
    "eJzNVFsKwyAQvIoHCKX9zVVCENtsUyHRoJv+hNy96yMEhFZC27Q/4rLjzuysWk1zwabBwJ2LC0qtSjaFDVeih5LFoJMWQRF2tGAIIxWFWDIDrcsY3gAK2dk5U25EB15OvV8vlWc7jZZAIVudDsd6JSEGiRIoX7l8XbCFtpV38BVzfG7lV236HbiCVy0gF01jwNodOJ/5GRVEyoLl+CM+lbA0klMRYKnR+4pY7Vdjf/aX9UdubJ8JBV7zyyviEamm4aZV/hX4oxvG82U9cVQGBP6Fnk9ObP0ZB9feXD8Aj1kO/Q==": "action_hello_world",
    "eJzNlE0KgzAQha+SA0hpt15FJKR1qoGYSDLahfTuzZ8IQptKre1GMszLfC8zicV4z8jYaRgouyBXMidjWFDJWshJDAQ3CNJqewPaari0IeZEQ+0ymlaAjAtzT5Tr0YmnXZ/XW9ozQqGxopAtTodjOUMsgSMHmy9cvszIhK35AL5iiue+9Kp0uwMr9KoGpKyqNBizA/NZP6ODiMxIih/1SwvTQVIugmzZ6H1NzO2XfXv2l/VH3Vg/Ext4zy+viFcsPXWNkulX4LeuGM+X/cRRaWD4F362nNj8Z+zc8d4jNyCEojelRbUxvnwAZmo7pQ==": "utter_application_procedures",
    "eJzNlN1ugzAMhV8lD4Cm7ZZXQSjKiEcjhSRyTHeB+u7LH0JC2tKqLd0NwvjE34kd0i2Xhi0O4czFQMqali35hRsxQctKoJUnMEE7e8CgUSaE1DKEMWaQSyChtL9Uys0Uxeuq++vt7XltyQdRznYfb+/9BgkERQpCvov5vmErdlRnSBVrvPjkXxanA1i5VyMQF1IieH8A87d+FgcF2bAav+j3FtaN1Fxk2b7Rx5rY2m/m6TMd1hd14/aZhCB5/vOIJMXekztZU/8L0tIbxvNkP2VUCIL+hZ9HTmy7GV3c3nXkE2ht+bdFLQ/F50EI57QaRPru0A4g58B9sJH+B+FabJc=": "utter_thankyou",
    "eJzNlN1uhCAQhV+FBzBNe+urGEOoTJUUgcCwTWP23Zc/Y2KySzfdur0xjnOY7zCDdMu5IYuxcKJsQKFVS5b8QhWboSUlkMIhqKD1DmzQCBVCbImFMWYs5YBMSHeulPMYxeuq39fb23NSowuinO3eXl77DRIIAgWEfBfzfUNW7ChOkCrWePFJP7SdD2DlXo2AlHFuwbkDmNf6WRwUZENq/KLfW1g3UnORZftGH2tia7/y83s6rE/qxv0zCUHyfPOIJMXek5m0qv8Faekd4/ljP2VUFhj+Cz+PnNh2M5q4vZ+RJ5BS0y9tJT8UnwfBjJFiYOm7sXoA7gP3CUZwYurzW/sHo/sLwG2XzQ==": "action_listen",
    "eJyLrq7VUaguKEoti09MLsnMz7NSqIYw4vMSc1OtFKCcnMziktQ8oNrS4tQioJrMPCC3xEohvSg1taSWgBmlJSWpRfEQpeSZQMAVXolliS6pZbW1sQBKHk71": "my_form_action",
    "eJyLrq7VUaguKEoti09MLsnMz7NSqIYw4vMSc1OtFKCcnMziktQ8oNrS4tQioJrMPCC3xEohvSg1taSWgBmlJSWpRfEQpeSZQMAVXolliS6pZYRMya2MT8svyoXK4jEmFgDy6mm9": "utter_android_developer",
    "eJydj0EKwzAMBL/iB+QFPveUL5QiRL0thlgOimIoJn+vwTnHkJuWHYbVsx6Tq6uiEL8tZvGu9oOEE7w7wxI3gzR236CNidKiefdVwI6BYzeDUkfvGQYrZi78QBlZ0o8+WdPZ3tb0d1iC5hgooGDJK/TC9/oD0vaISA==": "action_listen"
  }
}