[
  {
    "tag_name": "entity",
    "ids_to_tags": {
      "1": "B-address",
      "2": "I-address",
      "3": "L-address",
      "4": "U-address",
      "5": "B-name",
      "6": "I-name",
      "7": "L-name",
      "8": "U-name",
      "9": "B-number",
      "10": "I-number",
      "11": "L-number",
      "12": "U-number",
      "0": "O"
    },
    "tags_to_ids": {
      "B-address": 1,
      "I-address": 2,
      "L-address": 3,
      "U-address": 4,
      "B-name": 5,
      "I-name": 6,
      "L-name": 7,
      "U-name": 8,
      "B-number": 9,
      "I-number": 10,
      "L-number": 11,
      "U-number": 12,
      "O": 0
    },
    "num_tags": 13
  }
]