{
  "sujan": "Sujan",
  "ram": "Ram",
  "hanuman": "Hanuman",
  "raja": "Raja",
  "kumar": "Kumar",
  "sajin": "Sajin",
  "aadarhsa": "Aadarhsa",
  "hari": "Hari",
  "cloud": "Cloud",
  "nabin": "Nabin",
  "rajan": "Rajan",
  "lagenkhel": "Lagenkhel",
  "pokhara": "Pokhara",
  "khumaltar": "Khumaltar",
  "daphakhel": "Daphakhel",
  "dhapakhel": "dhapakhel",
  "nepal": "Nepal",
  "chakupat": "chakupat",
  "chasle": "chasle",
  "kumaripati": "Kumaripati",
  "harirarbhuwan": "harirarbhuwan",
  "jwalakhel": "Jwalakhel",
  "9841123123": "9841123123",
  "123123123": "123123123",
  "9841282478": "9841282478",
  "9812312312": "9812312312",
  "123132123": "123132123",
  "123123": "123123",
  "1232312": "1232312"
}