{
  "lookup": {
    "rules": {
      "[{\"prev_action\": {\"action_name\": \"action_listen\"}, \"user\": {\"intent\": \"goodbye\"}}]": "utter_goodbye",
      "[{\"prev_action\": {\"action_name\": \"action_listen\"}, \"user\": {\"intent\": \"goodbye\"}}, {\"prev_action\": {\"action_name\": \"utter_goodbye\"}, \"user\": {\"intent\": \"goodbye\"}}]": "action_listen",
      "[{\"prev_action\": {\"action_name\": \"action_listen\"}, \"user\": {\"intent\": \"bot_challenge\"}}]": "utter_iamabot",
      "[{\"prev_action\": {\"action_name\": \"action_listen\"}, \"user\": {\"intent\": \"bot_challenge\"}}, {\"prev_action\": {\"action_name\": \"utter_iamabot\"}, \"user\": {\"intent\": \"bot_challenge\"}}]": "action_listen",
      "[{\"active_loop\": {\"name\": \"should_not_be_set\"}, \"prev_action\": {\"action_name\": \"address_form\"}}]": "utter_get_number",
      "[{\"active_loop\": {\"name\": \"should_not_be_set\"}, \"prev_action\": {\"action_name\": \"address_form\"}}, {\"active_loop\": {\"name\": \"should_not_be_set\"}, \"prev_action\": {\"action_name\": \"utter_get_number\"}}]": "action_listen",
      "[{\"prev_action\": {\"action_name\": \"action_listen\"}, \"user\": {\"intent\": \"give_address\"}}]": "address_form",
      "[{\"prev_action\": {\"action_name\": \"action_listen\"}, \"user\": {\"intent\": \"give_address\"}}, {\"active_loop\": {\"name\": \"address_form\"}, \"prev_action\": {\"action_name\": \"address_form\"}, \"user\": {\"intent\": \"give_address\"}}]": "action_listen",
      "[{\"prev_action\": {\"action_name\": \"action_listen\"}, \"user\": {\"intent\": \"give_name\"}}]": "name_form",
      "[{\"prev_action\": {\"action_name\": \"action_listen\"}, \"user\": {\"intent\": \"give_name\"}}, {\"active_loop\": {\"name\": \"name_form\"}, \"prev_action\": {\"action_name\": \"name_form\"}, \"user\": {\"intent\": \"give_name\"}}]": "action_listen",
      "[{\"active_loop\": {\"name\": \"should_not_be_set\"}, \"prev_action\": {\"action_name\": \"name_form\"}}]": "utter_get_address",
      "[{\"active_loop\": {\"name\": \"should_not_be_set\"}, \"prev_action\": {\"action_name\": \"name_form\"}}, {\"active_loop\": {\"name\": \"should_not_be_set\"}, \"prev_action\": {\"action_name\": \"utter_get_address\"}}]": "action_listen",
      "[{\"prev_action\": {\"action_name\": \"action_listen\"}, \"user\": {\"intent\": \"give_phone\"}}]": "number_form",
      "[{\"prev_action\": {\"action_name\": \"action_listen\"}, \"user\": {\"intent\": \"give_phone\"}}, {\"active_loop\": {\"name\": \"number_form\"}, \"prev_action\": {\"action_name\": \"number_form\"}, \"user\": {\"intent\": \"give_phone\"}}]": "action_listen",
      "[{\"active_loop\": {\"name\": \"should_not_be_set\"}, \"prev_action\": {\"action_name\": \"number_form\"}}]": "utter_great",
      "[{\"active_loop\": {\"name\": \"should_not_be_set\"}, \"prev_action\": {\"action_name\": \"number_form\"}}, {\"active_loop\": {\"name\": \"should_not_be_set\"}, \"prev_action\": {\"action_name\": \"utter_great\"}}]": "action_listen"
    },
    "rule_only_slots": [],
    "rule_only_loops": [
      "number_form",
      "address_form",
      "name_form"
    ],
    "rules_for_loop_unhappy_path": {
      "[{\"prev_action\": {\"action_name\": \"action_listen\"}}, {\"active_loop\": {\"name\": \"address_form\"}, \"prev_action\": {\"action_name\": \"address_form\"}, \"user\": {\"intent\": \"give_address\"}}]": "do_not_predict_loop_action",
      "[{\"prev_action\": {\"action_name\": \"action_listen\"}}, {\"active_loop\": {\"name\": \"name_form\"}, \"prev_action\": {\"action_name\": \"name_form\"}, \"user\": {\"intent\": \"give_name\"}}]": "do_not_predict_loop_action",
      "[{\"prev_action\": {\"action_name\": \"action_listen\"}}, {\"active_loop\": {\"name\": \"number_form\"}, \"prev_action\": {\"action_name\": \"number_form\"}, \"user\": {\"intent\": \"give_phone\"}}]": "do_not_predict_loop_action"
    },
    "rules_not_in_stories": [
      "[{\"prev_action\": {\"action_name\": \"action_listen\"}, \"user\": {\"intent\": \"bot_challenge\"}}]",
      "[{\"prev_action\": {\"action_name\": \"action_listen\"}, \"user\": {\"intent\": \"bot_challenge\"}}, {\"prev_action\": {\"action_name\": \"utter_iamabot\"}, \"user\": {\"intent\": \"bot_challenge\"}}]",
      "handling active loops and forms - number_form - action_listen",
      "handling active loops and forms - question_form",
      "handling active loops and forms - name_form - action_listen",
      "handling active loops and forms - number_form",
      "handling active loops and forms - question_form - action_listen",
      "predicting default action with intent back",
      "handling active loops and forms - address_form",
      "predicting default action with intent restart",
      "predicting default action with intent session_start",
      "handling active loops and forms - address_form - action_listen",
      "handling active loops and forms - name_form"
    ]
  }
}